1 10 20
100 200 125
201 210 89
900 1000 174
653953 306234 509
799861 157751 509
697203 960791 525
567196 541725 452
468371 815893 509
944239 226127 525
954167 280906 525
736163 341327 509
978914 209991 525
604666 481944 470
840853 232803 525
921768 650227 525
762559 157507 509
43073 797377 509
540504 315635 470
828539 716049 468
918469 928765 476
523057 113730 470
872378 478516 525
519830 931091 525
907410 387822 525
666974 921936 525
388450 19833 443
773675 340216 509
962471 596330 525
741322 321184 509
93667 208336 383
151817 384117 443
933012 332491 525
722406 797895 468
380203 709323 509
216243 419291 449
149734 687930 509
562305 651558 509
244751 40518 443
456561 461093 356
623967 220263 470
303821 902718 525
537701 566235 452
879768 736467 525
391297 752210 509
720168 304965 509
658487 557559 509
936350 391522 525
864596 269561 525
88370 286890 443
566958 347754 470
496385 507710 426
352953 58619 443
229458 419474 449
850795 635899 525
383437 261014 441
767302 372472 509
116623 481987 449
519200 958078 525
920890 273741 525
659207 155414 509
526801 962620 525
540663 862810 525
616209 658129 509
157566 169620 370
919362 766904 525
866348 243145 525
745667 720730 424
249803 429068 449
574204 162378 470
300038 765147 509
8692 609641 470
66727 374461 443
1320 747270 509
604097 674940 509
455677 257474 449
190847 836083 509
621778 673253 509
846813 928883 476
230322 147738 386
755347 464922 509
752473 711535 424
178744 479651 449
875326 897597 445
619254 709623 509
709341 101222 509
923280 191751 525
383197 443125 449
123701 280289 443
584135 327265 470
940144 484834 525
54510 666519 509
242759 405334 441
858522 704951 525
922373 231944 525
526166 633977 509
162041 490093 449
352073 199988 443
679455 609767 509
485981 842952 525
433391 495777 444
450112 695037 509
34340 269629 443
949387 29141 525
907997 313415 525
31064 268545 443
751014 769855 468
192968 912991 525
495926 641528 509
668871 144621 509
875381 963973 507
577118 566273 390
75709 530725 470
892504 230892 525
394845 745897 509
964182 298102 525
253737 965966 525
872291 989476 507
389724 223890 443
560599 228596 470
814291 381404 509
618871 128562 470
408782 939937 525
420290 638750 509
834935 517969 509
772333 232932 509
596329 32740 470
295353 732133 509
524075 477073 470
536207 947932 525
170052 894269 525
396351 439258 449
26980 667082 509
492748 262206 449
385041 624010 470
526443 820303 509
799329 900741 525
657481 408511 509
735042 805028 468
839137 579066 525
828889 299778 509
858122 132206 525
460309 381561 449
137417 361948 443
237370 396404 441
144058 732107 509
602568 867163 525
702638 571478 509
587209 175290 470
173558 821496 509
260707 247802 363
547943 591794 434
468924 260185 449
718311 287008 509
654765 942537 525
832726 719434 468
220001 407963 443
998941 450292 525
613001 627361 509
117479 417032 449
716309 516956 509
303099 697078 509
945276 122809 525
173671 563399 470
31432 931373 525
96259 705395 509
279350 990209 525
108810 838537 525
448232 783450 509
106706 153172 375
985505 970759 427
887409 662473 525
159023 870816 525
659818 443780 509
673127 91786 509
947240 656999 525
231440 364457 441
308962 203168 443
76678 385578 443
953746 66970 525
48566 865875 525
151350 91909 375
423097 765237 509
813590 994888 525
898272 257582 525
211188 238160 443
585025 209429 470
617281 740644 509
890141 365077 525
984701 774208 525
94785 694791 509
601195 654751 509
176 355042 443
891920 983484 507
877118 403905 525
690881 540596 509
3851 781369 509
738687 848810 525
501172 902142 525
406012 621655 470
879208 414510 525
607342 642687 509
383355 920407 525
918176 846411 476
259201 950770 525
803607 448505 509
478300 475844 382
91723 373009 443
69866 679077 509
710598 406104 509
575465 545812 452
739925 521 509
219891 870649 525
27466 207716 383
387948 363313 423
552067 273038 470
623948 245406 470
447791 99187 449
432513 68962 449
258355 107385 443
913327 643596 525
269814 439240 449
343617 567141 470
341094 279962 389
546935 472676 470
202572 545209 470
736197 781421 468
992714 793941 525
279408 737378 509
553234 145346 470
959406 865401 507
91089 132594 354
222665 592497 470
976114 531420 525
594836 663028 509
756244 774790 468
84791 820357 509
265135 680047 509
546626 930974 525
598362 371519 470
326544 473589 449
277404 459335 449
646929 988201 525
119771 374997 443
567297 748582 509
179236 349086 443
723267 367529 509
301306 105297 443
590829 961898 525
971976 109561 525
