991161 124073
580643 157712
298206 135882
380802 151544
310081 831755
147344 855332
281681 817069
954696 301552
757494 36972
987399 186970
640597 521477
7827 660724
300565 577914
440966 463377
579929 410401
592641 371676
788006 597674
100264 931598
85976 942518
365904 717990
95736 683072
826572 358548
85454 957670
775767 833896
264890 784015
774855 757229
562170 200847
581250 668834
274294 480564
402514 151037
13704 522502
129981 898247
836499 693707
469069 682969
306426 550228
466296 737011
212576 521592
476292 22020
81176 126531
560455 596972
925933 831066
2228 714842
311569 561348
121594 153812
502475 782226
540288 715754
107025 769166
684543 461671
26251 724184
187811 233906
347300 89237
676569 723659
295562 389016
7252 356200
47911 810312
211490 796118
728717 904659
633906 486774
844984 126290
455643 405789
559750 686738
167891 498843
63942 603415
177576 884200
632766 317520
424714 830123
65777 905714
397558 533623
205596 25378
754136 616248
631965 874281
50781 93904
265165 767786
906435 627337
383950 207462
799876 617335
518625 161796
39514 529150
50922 366536
268041 229764
827847 665577
116636 814500
518577 120764
466212 681934
400508 862825
631076 379935
945905 943063
675078 858088
558419 10879
676834 407219
699805 236729
218337 888005
596148 673341
884581 819256
736274 541389
82769 149552
203359 305991
433013 632321
740745 71033
748600 434749
973029 139899
97699 728953
949865 323360
833187 704973
619803 814699
493428 486324
425433 462387
16965 789798
320913 954446
673539 372329
271455 882410
33187 272442
852097 586345
747447 827881
951487 844887
178848 28030
844694 198898
305008 319669
90585 891830
129556 992775
945514 154987
158084 861998
143322 386835
386075 885653
75750 407498
438033 562294
574596 676798
910908 381067
734130 334228
830531 238426
138970 204185
597224 222158
273051 747211
887858 603822
245413 249985
25984 892100
101523 479866
738028 187474
820043 241999
630230 117661
341374 956749
249933 290212
316329 55876
669119 371373
585830 962394
422651 683684
801629 420202
965150 266753
492830 49188
749604 799473
847976 634254
983171 715110
960342 372331
123755 154877
177817 296997
834324 736691
867972 170460
953591 183143
618151 556373
670363 309670
960832 408728
965929 529023
923497 377253
93197 802166
420755 535195
668992 579866
670711 265060
723152 882562
738422 415306
798077 293482
515541 108669
793674 973394
665356 690858
185968 299148
101224 451168
77616 653994
131786 294234
394987 372524
615727 532649
763141 116248
834307 482971
235261 408998
848291 359369
377209 696843
587106 250992
494092 596790
437699 664228
649641 14001
733084 847153
121020 615422
64907 625857
362437 236180
598700 474205
841880 481155
768249 992542
248797 269881
158670 182766
174201 580280
542468 580391
716661 242054
999919 423999
427525 637642
649458 7090
766142 451181
579446 919544
339492 937967
809431 395159
845752 517673
182695 832180
869078 464659
512183 259353
942250 286282
448790 392048
527330 12028
165997 931085
513325 919043
974318 787932
416750 627172
283455 543984
229969 257861
606127 834018
351392 928457
463218 457598
34212 868036
64637 313853
592748 815448
528624 748089
503860 124542
603414 849970
467168 782475
896525 205061
