794795 312651
804584 769588
650187 156106
132269 42373
932920 957878
170741 935596
661986 562066
412281 917517
853399 612216
622840 311566
167148 261079
760404 522170
288562 561884
62825 94811
66920 29319
184446 709523
557948 123195
245953 970903
556026 563151
102674 168065
598361 340416
691604 206174
356704 49878
884531 397001
832465 249520
40684 250235
217175 944441
167228 976285
669540 777256
13839 891728
597260 172996
420707 137535
632344 260337
486115 188056
428947 991746
74359 679531
977009 604993
891087 709000
60460 1893
494276 359559
951484 674805
460872 21753
693026 134995
979234 259346
575724 259600
137123 452645
85417 368915
362844 785636
791881 776701
758472 468156
410655 969291
543501 356883
327633 513918
474124 435667
382790 456950
48863 915516
727372 340582
229867 180681
827176 665744
788608 267201
17346 107593
911994 891811
199794 615833
733907 278580
456613 691109
667677 983061
128851 732370
479356 590451
125110 514972
322081 528438
615506 960876
957402 22746
974859 909597
615433 670467
398988 537947
234119 509325
151639 890221
375998 585281
705241 603586
622446 641397
620342 60931
221474 101218
351232 451419
730100 717670
507762 581209
256976 205966
182664 691113
736238 517947
794274 162433
844716 629414
422934 896961
155926 92854
787385 763266
574294 846315
664436 359832
512294 298554
928222 587996
486707 547102
754885 722771
98303 725833
624634 272335
363809 638358
508590 538491
46025 46921
970008 549099
97801 407356
977094 116167
257811 606811
783678 297580
730179 231769
530292 207279
586066 634605
460465 489363
363494 551816
395984 336071
569632 986720
981959 660319
350582 309505
381941 39209
110934 97227
491726 845741
901270 85726
262059 977982
901382 633107
992542 587896
525232 258852
663758 174347
974966 827675
347975 569953
456326 694151
200745 48172
915965 326839
411581 50394
724877 482004
504001 481881
853490 934837
278760 960373
669916 429772
550658 545445
504242 74846
606239 985566
378780 727228
128854 218447
544486 256386
649456 263769
172339 450331
437364 18104
803089 505360
165199 302597
149716 262360
795653 891275
917909 823983
525590 619931
785623 96857
797953 709347
510637 590200
227321 513189
341982 394351
377424 348730
160940 242137
220953 201632
212529 302280
94462 177655
355978 268632
777528 978997
648895 731269
140893 542562
648295 43756
517254 530166
363698 374229
341921 84443
344412 471515
345759 898631
515508 194946
760359 120892
109242 22863
754094 965244
549698 17947
591134 424536
575923 313562
145640 616678
877701 193259
929037 265146
130265 308656
731237 295642
810642 345915
361717 186784
39884 478288
974621 871275
733523 600818
562534 422218
14082 929758
268709 299999
57594 6752
726198 71650
70778 701184
960294 514908
632976 789819
549970 505985
861986 626186
319854 680028
211588 527896
326771 109071
747695 743296
327109 311066
138045 329084
7407 366646
693168 310624
590687 170545
835686 581219
21250 655592
693325 326118
34166 129488
549387 948271
829459 428722
66047 647482
658490 619647
38935 512067
268345 668618
485783 33477
662769 303797
480767 520161
555103 569153
237444 209470
474251 795041
534490 458614
860637 564257
431319 928641
811537 689743
52607 400451
697756 481769
347986 667235
291983 683745
845355 813729
178302 894263
49238 579548
285215 606099
216272 283416
312871 897452
564863 645684
472761 604689
657427 560234
172268 211695
505705 860406
894520 940088
