489541 734914 509
481514 692704 509
687173 208166 509
952602 127091 525
311699 738994 509
502770 280664 449
399412 535550 470
630851 515753 509
452913 846527 525
942202 566901 525
698802 353025 509
9749 471838 449
18161 910806 525
157649 882625 525
418331 22103 449
491944 337204 449
755824 781855 468
213967 599557 470
855283 690913 525
403297 657368 509
970153 864938 507
954798 871790 507
352992 682932 509
158256 121474 383
639787 768629 504
870599 57068 525
178000 736851 509
527773 288149 470
855720 741313 525
11105 35367 311
223010 181033 386
132420 624869 470
421086 976097 525
915367 562394 525
53719 806617 509
969979 291093 525
328315 182333 443
995618 887274 507
984884 572947 525
999896 847936 507
670352 646477 442
558665 851830 525
712066 790151 468
522944 333802 470
799541 247016 509
472094 479396 382
850912 945325 507
320360 624379 470
612376 35058 470
523320 838464 525
140677 729442 509
431233 190479 449
695625 345134 509
768992 747155 468
405816 701551 509
807823 944503 525
437365 568709 470
421386 428877 418
68395 6259 340
217379 950452 525
842423 857753 419
750434 34965 509
138188 666562 509
779741 132394 509
194448 468503 449
229714 957902 525
598049 830321 509
968880 505130 525
548974 324212 470
283677 501649 449
467917 528560 470
904404 619059 525
957978 877641 507
864193 897259 445
745836 540894 509
209051 348563 443
742460 756361 424
925635 852767 476
549151 586010 434
870527 509043 525
926368 949603 507
808831 479442 509
550099 287833 470
951599 271570 525
415969 197708 449
68786 730255 509
930000 846463 476
408815 300763 441
481143 708552 509
275757 630426 509
414564 241711 449
545625 598924 452
920787 477277 525
776834 636729 504
19824 913502 525
200027 8289 383
345426 395904 441
603704 495557 470
270015 599960 470
247275 126455 443
839592 571084 525
65742 381474 443
405044 729578 509
142152 994032 525
600978 371252 470
880249 911089 476
958759 358926 525
949077 831913 525
682840 273013 509
442844 466687 444
684712 169724 509
510758 373163 449
694812 155399 509
251863 158641 443
916235 483861 525
66810 392983 443
594676 566490 434
459194 33673 449
532394 73403 470
530199 665702 509
917960 963673 507
652846 613678 509
514642 81197 470
927311 302318 525
106857 617784 470
482561 911290 525
41467 537045 470
948094 491015 525
486539 154214 449
622406 127815 470
326912 833498 509
62783 723597 509
117270 549517 470
284268 868078 525
136963 132121 344
311696 722362 509
933644 362656 525
434395 660711 509
869245 80838 525
472614 702147 509
390251 758642 509
245407 844320 525
467222 29118 449
33766 46864 324
493294 263141 449
224453 198633 386
772535 1430 509
790192 597421 509
358640 356632 379
699641 340506 509
471903 311166 449
894031 735297 525
745946 527159 509
295213 569615 470
494725 1035 449
194660 249950 443
372166 245305 441
124060 870878 525
15773 109959 354
584760 938034 525
61552 793612 509
932947 835558 525
427398 558470 470
645725 847563 525
864312 612749 525
474166 66500 449
497415 55412 449
269188 5053 443
863187 609864 525
545800 765475 509
894924 662212 525
551789 543242 452
129652 103835 354
689143 544625 509
567347 110265 470
834195 964030 525
933614 535717 525
472612 430126 444
156167 985678 525
651235 818608 504
680082 108579 509
548288 83885 470
391411 763538 509
98942 5970 351
491345 409169 449
704073 441032 509
253778 525950 470
918781 913507 383
909439 750487 525
323038 68067 443
402406 542792 470
413091 679820 509
361296 664562 509
926191 282879 525
705829 836468 468
670805 190209 509
516762 774115 509
857105 273476 525
846864 632688 525
834720 758879 468
628482 301200 509
2575 391430 443
8629 51712 324
834603 760417 468
162590 316237 443
374650 390450 436
560317 221319 470
902231 367899 525
159634 994857 525
483530 668678 509
604953 50611 470
62623 228504 386
720864 515640 509
225687 520797 470
558804 611555 434
385856 764787 509
206769 780692 509
312642 493421 449
444232 278406 449
906918 484574 525
697298 879586 525
773629 453395 509
988913 399529 525
235861 535551 470
655275 33928 509
443893 809740 509
352761 498279 449
606675 864213 525
555881 186901 470
238696 915892 525
9537 905152 525
322493 718276 509
518743 336831 470
323294 163280 443
385133 472389 449
957299 914202 507
625531 292675 470
947609 174808 525
354298 664701 509
170120 979594 525
44411 860607 525
531746 965380 525
