39384 30887 324
42778 36916 306
47794 38336 314
35387 10493 311
16650 41422 324
2363 40028 324
18691 20060 274
47764 13927 324
30541 33427 285
39173 5737 324
5212 45369 324
2568 6430 262
15783 21531 279
22863 15124 279
24068 3136 282
13930 29803 308
34023 23059 308
33070 48168 324
11394 18457 279
25012 28043 308
26230 27374 308
34422 44920 324
13785 48538 324
25199 44325 324
48316 14371 324
16414 3527 276
26092 18981 282
9957 41874 324
6863 49171 324
6997 47282 324
2306 20926 279
27085 36328 324
10337 26506 282
847 21730 279
11314 25858 282
16125 3896 276
19583 546 279
48815 33368 324
15435 40365 324
44044 13751 324
21088 26809 308
17277 47179 324
45789 43585 314
5404 2652 238
42755 12400 324
49933 45061 314
49677 43369 314
47740 10013 324
36227 48587 314
48095 47540 252
40796 30571 324
1435 10379 262
47468 16602 324
10098 12903 268
23318 20493 269
26653 10757 308
47302 10281 324
24287 9442 282
3866 29690 308
28445 46620 324
8441 44730 324
8032 8118 190
38098 5772 324
34482 40676 324
20710 48928 324
4568 27857 308
29498 22354 308
4587 26966 308
5307 14684 276
6220 28625 308
1529 32872 308
5733 48830 324
9504 30020 308
8271 13369 276
9709 36716 324
26341 18150 282
47797 724 324
42619 2246 324
22847 43452 324
42922 43556 257
42380 47489 314
37765 38229 244
19842 42351 324
15194 41501 324
7035 37765 324
20125 24915 282
36988 25857 324
23744 46492 324
22228 48366 324
9860 31937 308
1433 2552 209
16438 49229 324
3276 25408 282
1475 26122 282
18859 44396 324
36030 11238 324
8236 23794 282
15819 44429 324
16144 31012 308
35929 39530 306
18777 22405 274
14444 5764 276
14614 4539 276
18607 36841 324
2905 44819 324
35129 20689 311
47370 17918 324
19918 16997 279
43325 37744 306
9471 12184 268
48491 45500 314
39773 6726 324
35645 5591 311
17506 18140 279
2955 19787 279
7670 38083 324
8543 38465 324
10198 39508 324
9356 28805 308
26349 28612 308
23623 27829 308
49300 37344 314
45747 35569 324
4341 5423 215
23312 13811 279
17606 21802 279
25662 23731 264
44879 11306 324
29321 28737 272
29445 48627 324
48523 3466 324
36709 23417 324
8283 13259 276
12925 17638 276
42063 5625 324
12601 32037 308
33453 11900 308
19380 45551 324
47469 40072 314
974 37132 324
3882 34931 311
8934 45895 324
8661 20164 279
7200 37982 324
48900 2997 324
2960 13774 276
22814 39669 324
37191 31096 324
2927 16467 276
15085 11341 276
22091 27685 308
43377 5543 324
5937 29108 308
17446 19757 279
19180 18419 261
6888 39413 324
3349 32173 308
1660 12010 268
2337 25211 282
16343 17588 266
28207 19302 308
47714 17373 324
25322 1256 282
14820 44600 324
17722 29905 308
5940 39812 324
23941 15668 282
11706 46229 324
11128 29151 308
15985 46659 324
13921 39225 324
2423 17270 276
21397 4082 279
45631 40085 314
29293 11973 308
7673 23851 282
47626 5386 324
41223 39300 306
6641 6043 262
33899 40714 324
2299 6191 262
30525 42591 324
38210 8582 324
38820 49337 314
37733 21156 324
45995 18005 324
10380 14770 276
35274 31777 311
18851 47256 324
21861 48143 324
25580 45885 324
21994 23206 269
17622 29568 308
12505 40614 324
1962 12755 268
31327 4260 308
18945 28203 308
13203 23507 279
36785 2022 324
22843 40869 324
39529 35190 324
8873 49909 324
49959 10499 324
48037 18809 324
7754 36249 324
33304 33334 205
32134 21649 308
22891 49755 324
17568 1747 276
40369 19530 324
14501 38047 324
23789 49798 324
16250 36991 324
23304 3034 279
5364 12498 268
10254 44893 324
47687 19126 324
11153 13997 276
45976 9189 324
49158 3730 324
45437 32461 324
3415 43922 324
20461 26305 282
10029 38028 324
28051 16749 308
7557 8903 252
4795 47698 324
8700 21044 279
1040 32003 308
40429 6404 324
44501 682 324
17648 8539 279
36160 45152 314
22536 32135 308
4340 21693 279
2216 16128 276
20505 5630 279
10050 40965 324
48286 36430 314
45344 26336 324
3178 2901 217
35239 7972 311
16950 10290 276
45368 17989 324
42293 35796 306
40744 3145 324
2830 8391 262
11683 5341 268
3542 570 217
3827 24233 282
