867490 939439
851455 74565
10330 248214
369286 209750
337521 845174
298205 619456
239514 5435
531061 104984
809396 200296
885204 782357
249081 998311
848115 49856
483591 879367
437441 666614
337356 913508
13281 158941
696666 126145
567798 686645
602582 32145
783769 216767
12444 241251
327558 845839
168422 148958
440150 518561
22514 823781
508951 304666
827524 827348
5775 283557
25117 363923
857240 170820
669339 605207
434361 638472
870386 382482
679140 498452
977942 435264
338735 510596
772874 410591
662185 364683
597636 762714
161954 556937
44364 423567
427687 249222
511487 59288
54084 363550
635989 24794
168387 589449
688777 917586
996624 812371
946263 674487
86306 604087
286893 995571
481145 212853
674686 599269
359820 164335
173247 763091
950881 193856
707375 940296
177621 764201
815217 760487
364162 493176
567744 465445
421949 848759
381462 127883
662693 865900
764048 456073
899502 27240
533575 508329
772741 257468
656054 24827
824578 529256
697340 537660
881352 441895
231902 950563
241751 500965
957689 217762
133349 335162
667012 842797
224127 2129
146082 52132
406245 658502
543101 621306
131083 621073
96208 934602
91277 284297
869076 372618
612859 974254
212060 937990
49852 377379
182585 436304
82048 563186
865234 357908
520067 444505
376612 207618
968606 735196
91353 947613
709207 373561
878193 772898
445537 814669
611941 587352
453998 239001
151442 609141
14864 256299
999324 296881
798908 376911
81895 817358
498979 261014
740859 167209
820233 395225
895721 653666
290025 24740
514075 734088
306825 152782
780167 979478
570043 199672
799407 996151
726218 443930
394222 858005
51011 238578
870188 602928
940202 879934
362053 973485
703678 139701
104055 151707
798911 468662
269722 266159
822293 955942
151661 738863
966023 252631
730306 922041
770041 757675
729937 182509
778423 28463
378592 132754
712101 857082
705451 487645
325722 502816
343295 878817
379104 235679
534198 740090
896186 308381
895296 144955
366673 42455
89719 687095
144392 507990
69828 948158
288272 110057
694241 402178
707830 368046
577057 334423
569421 223318
914002 428378
477950 350897
105400 764812
525358 878245
602770 657187
26928 742762
918080 166324
709956 611867
704927 188987
919713 151991
499495 381350
577190 508139
354269 509034
58524 960774
255763 288506
588173 966081
239812 955049
152932 520325
585272 733041
755633 585652
189248 316534
828135 932838
200510 817947
667840 897517
274760 486353
951002 602965
956082 841532
48356 709324
131091 909864
505413 748177
127693 326842
6115 214686
940686 484884
685301 264502
283334 188159
913696 932242
7035 878065
407452 741826
231659 958056
886524 171450
542473 319651
311033 472137
573344 334260
735743 9181
724515 204324
449202 61661
163765 859440
637741 353746
360764 169791
317928 994206
396345 527034
39003 788776
888859 957197
582807 939205
214402 246182
20027 799993
860321 504169
943277 93459
247527 950848
923574 473979
606647 854765
847107 808720
968272 746723
180728 265451
832305 496373
554583 986903
325527 192103
452960 220960
358886 130303
559998 880257
330852 961187
226776 985921
654977 428486
607205 156402
84591 792586
390159 430048
120651 184067
483020 26030
644733 186814
433352 227936
650157 241882
192104 111642
3694 653325
660901 706702
39322 4864
88352 81573
84410 333436
238837 903238
275710 503273
81979 986521
936803 733943
672329 773272
885220 444462
909449 158079
94613 690838
243406 894510
649154 314350
241407 702407
565806 523781
791247 610337
894145 809413
189467 962819
211501 647610
761446 212382
181030 695861
943725 65420
556349 184425
160543 487934
387347 729210
19333 723514
6494 233490
179656 327306
