129222 460099 449
360015 858601 525
8371 844389 525
954213 576521 525
847615 24187 525
668496 852256 525
470510 544691 470
838735 48745 525
684483 595094 509
902219 917304 476
231725 374268 441
48319 512892 470
25898 990900 525
755964 225352 509
666967 236030 509
170151 596212 470
989993 174639 525
609734 237356 470
987996 963238 458
276302 133149 443
317492 183994 443
871652 831629 525
806082 864616 525
291635 2754 443
189122 941636 525
414692 40372 449
379662 594958 470
659155 919605 525
292613 308327 371
530348 779087 509
443097 784816 509
616724 963010 525
327278 635348 509
596267 173266 470
662828 641094 429
436519 327628 449
450445 544869 470
103461 44352 351
41163 885521 525
904775 730457 525
476093 838523 525
742139 991631 525
457500 523343 470
602621 492226 470
22516 506483 449
404520 322965 441
507715 999897 525
219823 763361 509
833511 129380 509
142939 527754 470
750246 517436 509
834291 811816 450
130663 180312 383
777021 846548 525
541656 8588 470
28570 515673 470
44702 58010 340
695854 573556 509
906624 548748 525
87928 551300 470
737078 933615 525
701068 399503 509
537414 39438 470
270614 739216 509
904986 61632 525
641906 734265 504
386233 405714 436
526290 158470 470
7834 732485 509
600389 724930 509
478086 456860 444
284501 293668 389
281462 114753 443
969771 677736 525
28406 604599 470
565922 580521 390
953568 129590 525
907789 914908 476
113405 687382 509
801800 39912 509
415620 31369 449
885157 564003 525
684720 531290 509
306787 627252 509
812953 223143 509
476547 849959 525
153771 214093 383
816785 823593 450
628944 311073 509
369750 479820 449
380902 5141 443
373653 197990 443
35997 449378 449
440420 996980 525
494426 534988 470
702664 913528 525
228698 729488 509
991127 967368 458
329350 972062 525
166880 217111 386
808806 43654 509
899418 799051 525
502108 670997 509
648104 709100 504
157590 349471 443
184893 387449 443
409677 702401 509
444958 601965 470
525712 854141 525
594106 57654 470
278095 702697 509
173162 449201 449
295309 895448 525
109432 725871 509
947873 508968 525
714240 914750 525
300915 557044 470
894411 926356 476
225326 469233 449
69589 301661 443
490228 715281 509
805397 344826 509
712435 777218 468
496335 481467 426
593573 466515 470
801060 966317 525
281817 228323 443
483626 49347 449
566122 632578 509
413517 994174 525
765094 517311 509
319424 478822 449
933758 277960 525
829547 747098 468
317129 264935 407
762686 710245 424
445071 649517 509
212154 587565 470
456875 39637 449
985602 941551 458
274521 711433 509
913661 650640 525
110356 207128 383
866843 804665 525
339551 579563 470
610474 569043 434
756669 338048 509
502360 694330 509
196425 618400 470
259432 721599 509
512255 94747 470
399137 295730 441
520024 649288 509
636320 598001 509
175987 21385 383
810214 481858 509
895217 889820 370
578107 361209 470
612511 502354 470
107871 592569 470
749589 52119 509
758569 352206 509
244777 256783 363
671278 976024 525
421525 258237 449
395095 419478 449
506785 542891 470
289 104382 351
590934 603554 403
770318 392409 509
479047 278813 449
308009 615796 470
531081 315762 470
180799 823529 509
29560 297895 443
485217 495415 426
51545 626943 509
380728 972449 525
418141 101480 449
639027 286279 509
292369 534122 470
840498 195890 525
138390 422721 449
295095 502896 449
576044 585892 434
910144 918485 401
210041 713201 509
811556 522158 509
160120 695096 509
945516 638500 525
588822 630440 509
184276 457395 449
197273 423526 449
741895 956373 525
378747 780752 509
422990 241845 449
254067 179743 443
391526 522437 470
410053 308866 449
724332 98296 509
792323 183677 509
753128 250330 509
123831 626194 470
626670 481563 509
835762 70529 509
865657 940492 507
295190 852576 525
719378 882097 525
890728 178010 525
854961 495779 525
35049 354464 443
919394 535346 525
850821 983534 507
614445 643964 509
391492 966808 525
883609 806760 525
348071 817050 509
974831 568759 525
484872 705651 509
950943 119754 525
20201 420110 449
439488 78114 449
859718 870650 388
864808 575570 525
14957 293675 443
438555 127510 449
294097 127094 443
242967 680427 509
992068 320228 525
891453 552155 525
742722 924605 525
602831 55538 470
175339 585048 470
542973 745028 509
