986583 992427
116814 988376
727318 558502
143253 271936
812184 658793
157970 21726
250753 376555
866532 51294
868835 860405
686867 79464
490334 947954
86234 345660
540883 661613
938343 138544
607259 82453
167674 133827
132712 679094
407629 8805
663462 552690
795342 925788
311667 283768
843907 756253
176351 628303
375859 388153
155840 467319
885925 217961
965329 308142
86034 929731
466658 225183
833169 621013
452566 308541
205986 263912
181600 75557
259638 115925
151679 497300
552369 998652
590665 639696
484469 374477
872854 565060
922402 850893
431083 841828
722466 41188
707005 710565
178702 250061
295393 356584
860754 62515
234601 206142
824995 90590
604871 564848
754482 136576
465183 363749
706879 983725
979792 623769
224266 597768
479655 593392
65453 639059
704936 671154
702047 287246
102229 51297
462099 133846
763626 587809
915667 506965
895461 369948
284275 514490
473361 312018
507094 564251
790397 649327
699041 977214
715207 54395
247369 944749
700918 704745
387424 439740
666811 971546
428002 745506
11512 63149
536243 929118
272649 892775
683106 424273
547886 555802
999689 824363
881240 868377
717050 308807
544242 372406
82416 899716
286548 956339
123543 54422
786240 76478
500871 513390
653813 969287
120915 313440
70524 286406
641397 119044
390592 572756
890428 741762
116416 851948
106561 483590
850934 938130
282936 919362
25412 733112
280661 609008
513943 308490
142036 486816
640545 376084
361894 215602
798966 868637
854556 313522
522184 310188
833842 736678
321268 97566
385597 994167
563517 146555
198227 468921
275052 164220
116960 727413
984108 576567
351421 610470
610096 664040
610685 279114
504295 578852
728652 382065
214661 493653
305879 674041
541360 82936
519837 632704
854644 332652
956557 874019
207283 997999
508824 454197
892794 173305
4774 775867
271938 977207
759902 697203
814386 371013
174828 91162
83653 62
922189 914343
335839 672297
498442 905826
399230 211345
355623 214942
666491 282808
615889 420464
233904 601229
76425 646963
647615 811917
589776 300435
213840 769592
475281 9806
849108 871464
123988 462134
664215 954598
438472 352331
478597 483742
264271 194351
203477 565472
672951 826315
881274 243018
597568 823464
856093 576751
390169 194343
803496 240568
578673 103375
466353 609966
789058 185278
174587 606070
578210 130415
274263 471398
182867 251564
896951 691839
881242 681232
75390 885974
152220 740500
394635 517058
665892 855779
719400 368936
324829 965136
675838 768261
977762 22857
863374 935167
477404 155471
258388 295258
351607 394839
928782 919290
335974 822511
275002 733305
895813 842223
466930 879027
500668 550540
790163 400169
575070 613999
990728 894463
151929 963607
307276 381556
160201 570997
933460 610750
184412 713703
509340 38089
260508 595517
627070 722733
854564 168547
540544 650259
254339 771559
315825 624691
780411 793999
546570 293403
923237 818474
303842 346722
522849 731022
879207 737605
139380 58778
695276 479693
365148 849798
237837 476470
475134 543233
707387 395291
782646 34272
29698 514386
60309 334360
960011 21785
422801 549336
227617 208630
90249 586004
962233 457247
418288 810935
597885 748876
779685 988755
257728 310877
113246 589501
444940 605053
636893 924519
955402 845561
