895117 576835
182091 530042
815825 12885
107950 134321
465694 763880
315534 439233
31247 723341
730565 477845
90661 639151
207378 905314
875503 969013
481283 754574
981111 909736
350564 530917
162183 277521
814438 330765
529853 552269
414663 651391
846123 685409
521768 658381
274467 255662
108785 646005
8501 605815
283575 365556
389432 966319
494825 236706
427045 567058
232522 539578
409139 986157
477947 156622
610468 625850
12338 601054
548868 451216
307379 105148
150673 748747
866738 678021
977186 858367
922971 671494
695382 510270
911451 674415
100743 971215
636328 771492
753987 403006
24608 579493
544611 383401
735334 671871
801725 274627
406386 312041
381288 503922
653161 299559
788028 631044
658215 61761
889449 880851
31799 226748
278431 927378
328416 904767
463889 704482
983888 991028
601776 825630
754946 511354
242869 302641
569464 81320
177886 559303
726981 775092
329695 56754
619164 44058
487293 120767
286546 612390
919983 600494
631774 45750
58504 795956
330765 136555
197746 762455
32453 903569
913845 326064
16482 702603
488535 321415
609140 646614
894533 126021
995677 39243
43852 194572
941057 570285
355400 965732
416824 511315
617834 55793
909164 884691
395750 366336
545043 831024
684170 682148
751784 123749
250262 907644
684881 104006
978455 107366
156014 413951
530259 780138
218069 854267
609518 266055
877963 873640
145583 483175
561948 961577
797946 493798
209729 897534
370966 706185
57206 959347
459220 492474
196050 465856
205640 400347
245551 974191
71493 833074
346966 119837
803972 26986
965135 888052
274219 593489
239152 248254
158152 887533
76972 969209
147501 397955
8638 101914
984969 958266
485886 935861
879410 650263
158458 781391
560743 573428
258095 968949
242528 756385
434023 246326
130693 845682
437951 772640
29610 727293
180250 842378
267397 340720
509019 432564
891137 343235
500490 922001
684390 817723
692488 334356
783660 749377
105094 913571
106653 352116
174037 65304
905425 504291
398673 524973
686556 432030
529461 852052
629603 362888
162517 510580
206554 581998
158051 803234
864980 342519
814055 240613
392926 744878
973795 872628
960333 531251
584504 903497
746291 515353
877000 503068
415470 220792
805604 292800
761977 678055
540534 388740
666592 972159
170418 942819
875720 254959
790160 110160
411028 529728
359019 206821
671618 950957
939354 818887
3402 142341
792874 901294
401310 95381
677189 250174
532201 933512
575642 702411
946935 864534
205067 755232
911622 645366
491702 654452
340553 977645
781355 989386
490384 738363
412601 139002
925427 247290
932633 195420
423288 87700
379394 990863
810879 54617
772230 651660
495239 166263
653911 769807
72687 942887
246774 128271
311728 398979
523310 483975
235862 507655
990458 939232
853851 561105
952915 597649
905658 49443
889348 522610
368213 646160
273839 507990
921960 981865
52760 590292
506225 78021
771707 991972
907188 895760
256742 828840
315385 679277
101251 885119
392052 60827
597143 66140
929212 492464
302139 275691
611578 822088
715214 100501
400966 650601
127853 150431
813682 722029
50683 256362
647628 352621
557077 854904
253040 726925
160391 521240
859515 997419
429031 737530
731569 227731
101274 115945
44812 30727
994027 113552
202783 167428
887013 386988
675759 151751
395873 163422
20193 57279
918423 803040
665647 419509
763317 445116
894986 467540
914259 252868
346267 198513
458832 688665
922966 92985
527439 966784
998738 514644
587746 260707
111944 607959
39409 42508
383965 349353
14034 500268
196361 150269
850701 442326
217171 566513
