936623 174371
567522 415384
774422 369361
468623 588294
28797 359670
352286 700671
3051 659755
287048 914786
115253 295304
185718 137500
53591 823746
704069 509098
259549 224756
149072 431201
624430 981475
967472 590350
480387 82393
559193 153634
506932 224045
49441 268746
513223 878674
316979 265442
804098 975004
200632 606950
218237 995149
405208 836935
548671 700705
804580 505929
359933 723288
802735 220538
367831 942243
702325 167211
165495 566907
272547 312953
960373 131670
30747 592474
250661 392954
857230 538534
891154 774094
915406 270917
665026 616736
243218 732526
558848 308733
827290 707874
744483 639155
941581 168470
862346 544904
13243 244805
890006 55775
603334 743265
410669 472193
233374 928507
734606 529703
783314 759019
157476 542263
448856 837147
439273 507211
308337 316214
350557 150022
987751 398735
379098 834554
647443 218801
894742 125285
1444 515209
750474 582474
626252 569667
1603 877361
105356 845044
881053 552839
91923 801992
549540 801997
864754 823671
86472 651011
51017 929716
972896 347827
957887 874650
32104 69922
182377 482116
253042 189804
964485 232885
850087 25438
740411 311769
627780 64651
941972 42912
811370 7092
76304 455467
444203 125853
697772 161126
984783 451844
729673 974074
716135 87991
375499 315929
313543 262765
497217 477769
782688 246132
423950 150486
679651 723431
783095 470227
962728 542604
684197 503184
248959 638588
945211 360420
76619 694784
330620 351685
468273 467635
410332 944831
675088 572518
462013 166549
974823 353128
30735 786869
150283 344244
602457 958553
25731 434886
768012 421663
368224 944121
711695 822964
474180 553362
895987 751426
792812 242286
643401 331648
26331 759949
495627 183933
884996 707986
694714 626375
69217 751852
529969 197283
629793 395001
225913 304618
309235 347610
528008 18501
20094 46876
901964 333232
129585 475572
750955 980039
368433 129805
681050 714913
600389 208617
633985 426701
891718 806436
916586 449942
318530 837412
848190 253499
892849 932321
392495 966556
671336 102166
274776 134016
702279 633414
959147 447556
655628 511637
732615 308427
634918 647116
422490 810711
64235 583803
416925 150766
612245 248886
325385 811916
882639 117100
79340 29097
658503 991491
480966 681140
806324 538048
843064 296901
466257 489143
22027 978205
327340 497573
368474 643588
328591 892397
10721 714283
465368 87161
514883 817159
898444 751899
424293 533311
201821 571879
41514 129756
896615 223140
762758 841450
155974 294469
32515 894189
191249 735538
279700 387858
857860 36662
778809 834651
755130 339644
452811 220
113363 745065
798482 32317
713590 887699
872928 268060
966600 308923
766571 468140
572818 651934
500520 859708
719504 658190
343855 251997
602874 399680
996238 565193
41300 726896
884444 473376
373743 30641
369240 979842
233431 751380
79179 101632
28591 355659
83689 92067
361978 202897
974716 628259
420252 997145
216714 798349
272094 421902
522732 619724
288591 105884
699957 45029
537147 960517
242950 310464
395938 470548
632843 790611
583090 934529
619816 261471
481123 878091
126294 463712
930194 843440
939620 753934
566863 984226
336001 927274
126229 526361
143506 275860
597923 27531
886538 193092
567039 867589
769493 12378
738995 337325
909235 437201
838623 222899
853448 427295
47204 719322
83126 203795
560891 419174
793644 64680
204792 160262
689309 274436
787984 953280
638328 616438
850783 91324
612107 39863
74497 762005
820844 167831
840495 631009
442861 825207
6817 720694
720014 311559
878534 981324
649863 80679
814977 987193
4303 861693
100842 174991
106551 280604
920038 969553
