613814 578302 434
945677 176090 525
250828 45633 443
367068 935338 525
48610 72927 340
782206 44435 509
68222 830019 509
211205 799862 509
169258 390310 443
799372 606318 509
822332 533937 509
861156 991549 507
34511 453602 449
217919 186683 386
80200 672435 509
229947 720591 509
716381 781738 468
117656 365155 443
478601 855769 525
573829 282335 470
530119 716237 509
275536 195897 443
275294 575751 470
902760 688949 525
383974 277344 441
116036 960081 525
320613 90451 443
833352 406151 509
813513 987332 525
685047 147296 509
637352 493194 509
299160 928276 525
648728 139437 509
804647 747396 468
658011 386054 509
76 983909 525
537331 712778 509
453851 188477 449
374711 190522 443
375507 179261 443
70225 357809 443
326317 427394 449
759907 213701 509
732671 401236 509
27531 520522 470
372036 285464 441
935068 407992 525
488932 204199 449
93935 362150 443
204179 770066 509
268431 197970 443
696617 614059 509
89802 568720 470
254444 821950 509
820676 869733 525
375 744541 509
949957 996195 458
652611 745730 504
243174 753603 509
302527 102420 443
668967 337235 509
930679 643699 525
131189 834952 509
43861 783067 509
237187 232070 381
587438 759653 509
869791 773196 525
897976 246167 525
813711 367634 509
510473 132503 449
374917 579661 470
119862 690323 509
133817 48627 354
484237 979781 525
719730 458878 509
29825 926542 525
921593 580476 525
408454 847233 525
464220 651736 509
53706 141202 354
231490 49447 443
651217 519542 509
964869 466980 525
470900 257551 449
976820 724602 525
219373 890089 525
207920 180645 373
89212 411862 449
206432 564278 470
404342 164368 443
527482 433804 470
57697 29341 340
823903 531220 509
863757 42327 525
868829 218297 525
807059 99256 509
200320 877798 525
375654 959142 525
757359 422113 509
318678 911932 525
575304 233870 470
87124 184202 383
390746 354974 436
988993 787020 525
548781 605176 434
838308 404197 525
28159 328661 443
36923 1940 324
683424 174875 509
593431 24157 470
393404 799762 509
379997 165276 443
34972 100374 351
948717 857064 507
808329 131020 509
140824 745345 509
862533 846466 419
980123 587383 525
976468 896738 507
617759 602770 447
86469 104677 341
461100 947481 525
400289 433548 449
594425 341302 470
780887 586566 509
375151 143408 443
637424 793699 504
3447 47877 324
614395 121819 470
242626 348 443
119755 180368 383
7959 815197 509
870810 794096 525
77751 371961 443
123704 493321 449
15372 24638 282
846930 863390 419
692194 435135 509
465587 327849 449
822359 49532 509
196135 150880 383
314728 404246 441
216663 254578 443
996350 17156 525
372602 475436 449
376761 940668 525
517654 514273 395
9043 471252 449
822997 418445 509
655827 778651 504
778391 838014 525
145063 670989 509
78030 252192 443
478564 853475 525
498109 572219 470
22732 257377 443
129210 651576 509
185957 699535 509
158145 38406 383
118785 283665 443
636601 234622 509
380659 74144 443
86177 894423 525
751865 588975 509
479785 841896 525
855696 213390 525
137176 539946 470
80359 638545 509
589309 82688 470
9922 523335 470
618810 647168 509
504543 12816 449
829682 26466 509
154013 951871 525
861872 460604 525
146228 510665 449
288496 517251 470
436055 462003 444
655369 733775 504
417026 596491 470
57945 365072 443
842740 249023 525
83801 910251 525
259281 703737 509
767532 860149 525
341138 873825 525
586516 523361 452
31499 876586 525
153096 847934 525
350069 606738 470
640501 135621 509
730110 151760 509
832333 934663 525
729683 803127 468
274021 297584 389
943223 349946 525
944099 416673 525
821124 918394 525
27900 173318 383
740580 536118 509
837165 291615 509
48889 299243 443
21538 371429 443
737292 553651 509
87269 875466 525
940748 223581 525
832821 264430 509
75715 778440 509
487318 480481 413
290727 72437 443
513775 465832 470
501659 777734 509
143921 95107 375
568326 267361 470
776285 68936 509
855240 824217 525
301554 775661 509
246810 334867 407
792603 956876 525
845735 291086 525
484425 434526 444
66112 101385 351
654957 595100 509
3570 353838 443
525480 95787 470
6643 327389 443
514839 604097 452
294119 701724 509
