674631 753652
58072 411928
609099 947137
210967 303218
34690 497522
931531 589572
691646 424696
305927 74509
524845 901961
29786 668956
209975 707806
825077 366092
312755 967981
71294 545958
76302 299081
349883 57658
91385 313609
477801 508507
464438 114999
42011 409885
196619 809620
231177 468063
528167 330530
779950 296391
932875 344087
724718 760993
557178 241011
872383 46185
285189 389236
892540 680789
171064 41035
182621 442147
742792 34698
46401 731767
318183 602858
802081 733987
295754 608320
21044 698062
904405 479770
230526 953407
289895 840106
908296 401986
210475 64446
4423 998282
174441 483761
917882 96357
408137 505209
432666 149156
807342 451157
36213 472452
814631 981960
833483 102394
571818 596289
20072 626821
821341 44374
709575 585390
516336 296
596795 794414
256399 452075
311899 491864
477020 968757
697555 720869
972243 58537
560403 644749
88076 731322
168960 685111
887539 869371
96935 600776
921098 308950
941784 712734
438132 204870
22591 534339
107313 629544
104007 525770
459300 426395
890697 988925
6353 443067
47638 496355
63599 478036
827839 100652
821960 977977
330633 933792
191561 661127
197121 78458
763210 547017
215608 552361
866014 4338
852406 402561
291583 913134
53427 816931
783101 306807
269125 569259
51382 613937
605007 410443
582334 252433
813375 178693
514939 491655
57789 20884
973472 190995
890594 728364
152945 552362
190991 291329
965541 834151
257436 425617
889382 839924
48126 604918
287857 811763
344690 198118
676699 498285
961583 571891
874932 892342
679753 899006
797676 595806
694339 618458
369598 497929
308409 707282
169212 249056
765365 854106
769796 333960
248469 983905
775293 154973
408353 733647
818773 488268
505299 421708
566431 670895
404840 229047
609247 485731
859819 206896
399676 579603
944106 139972
554595 720128
50155 253123
334329 966901
977352 564880
805517 381874
216008 89613
939678 504482
556163 595930
913259 478686
505384 182125
359570 932933
898638 936490
94057 646846
422349 759016
612730 608485
724862 917267
702348 11802
113294 860205
701164 810285
302846 942046
713121 768587
74220 829920
377885 943955
437060 234016
855009 17332
262915 105390
705534 409121
946096 794234
713479 863279
540931 217374
340681 563199
809182 326012
603076 222639
849850 472699
845938 802215
184276 293099
954591 360659
597672 172497
298799 948200
489065 186477
683698 905004
606962 942484
512116 877055
575404 416376
409778 533328
967987 111601
646993 364585
122012 705250
963459 639819
663988 642571
783211 158152
881730 480000
384938 510098
843990 832673
862309 404014
558740 318464
65918 44587
917769 308852
689380 440948
562918 144389
359807 864159
104717 42390
511806 769342
693623 531671
465645 350123
282537 671389
647608 996111
857864 383735
753708 319655
359661 407821
115715 228899
363992 990589
78462 659290
161857 377424
73059 46089
532431 749468
195234 114531
629568 368380
356997 127476
731672 315699
318530 574002
319671 552208
869184 892094
111245 912880
90375 975436
466025 81892
498224 50286
799323 758148
575456 672424
832927 657648
463359 458509
257998 453267
296363 770897
901826 779256
279686 754779
180910 435155
344759 405302
679805 270248
365421 915486
946511 951325
508474 561406
283364 481626
555559 679057
33382 843877
753702 635610
55916 196358
540763 674562
810142 771995
717924 55124
100775 934346
32171 171161
19533 996531
994743 691826
696581 450981
462025 867424
252124 912753
609363 549240
216485 15276
943354 58616
27270 822734
